<?xml version="1.0" encoding="UTF-8" standalone="no"?>
<svg
   xmlns:dc="http://purl.org/dc/elements/1.1/"
   xmlns:cc="http://creativecommons.org/ns#"
   xmlns:rdf="http://www.w3.org/1999/02/22-rdf-syntax-ns#"
   xmlns:svg="http://www.w3.org/2000/svg"
   xmlns="http://www.w3.org/2000/svg"
   xmlns:sodipodi="http://sodipodi.sourceforge.net/DTD/sodipodi-0.dtd"
   xmlns:inkscape="http://www.inkscape.org/namespaces/inkscape"
   width="210mm"
   height="297mm"
   viewBox="0 0 210 297"
   version="1.1"
   id="svg8"
   inkscape:version="1.0.1 (3bc2e813f5, 2020-09-07)"
   sodipodi:docname="backround.svg">
  <defs
     id="defs2" />
  <sodipodi:namedview
     id="base"
     pagecolor="#ffffff"
     bordercolor="#666666"
     borderopacity="1.0"
     inkscape:pageopacity="0.0"
     inkscape:pageshadow="2"
     inkscape:zoom="0.98994949"
     inkscape:cx="158.84341"
     inkscape:cy="459.69769"
     inkscape:document-units="mm"
     inkscape:current-layer="layer1"
     inkscape:document-rotation="0"
     showgrid="false"
     inkscape:window-width="1920"
     inkscape:window-height="1029"
     inkscape:window-x="0"
     inkscape:window-y="27"
     inkscape:window-maximized="1" />
  <metadata
     id="metadata5">
    <rdf:RDF>
      <cc:Work
         rdf:about="">
        <dc:format>image/svg+xml</dc:format>
        <dc:type
           rdf:resource="http://purl.org/dc/dcmitype/StillImage" />
        <dc:title></dc:title>
      </cc:Work>
    </rdf:RDF>
  </metadata>
  <g
     inkscape:label="Layer 1"
     inkscape:groupmode="layer"
     id="layer1">
    <rect
       style="opacity:0.997;fill:#784421;stroke:#3c2518;stroke-width:0;fill-opacity:1"
       id="rect833"
       width="96.228996"
       height="93.230469"
       x="24.819868"
       y="74.216118"
       inkscape:export-xdpi="67.565887"
       inkscape:export-ydpi="67.565887" />
    <path
       style="fill:#965b35;fill-opacity:1;stroke:#000000;stroke-width:0;stroke-linecap:butt;stroke-linejoin:miter;stroke-miterlimit:4;stroke-dasharray:none;stroke-opacity:1"
       d="m 120.80233,118.76734 c 0,0 -3.7074,-11.05522 -37.997439,-20.86469 C 48.514844,88.09318 24.837204,81.699742 24.837204,81.699742 l -0.303968,5.541317 c 0,0 11.425827,5.447218 56.080194,20.023491 44.65436,14.57628 39.64235,17.65109 39.64235,17.65109"
       id="path835"
       sodipodi:nodetypes="csccsc" />
    <path
       style="fill:#965b35;fill-opacity:1;stroke:#000000;stroke-width:0;stroke-linecap:butt;stroke-linejoin:miter;stroke-miterlimit:4;stroke-dasharray:none;stroke-opacity:1"
       d="m 120.95603,134.58868 c 0,0 -7.15553,-4.403 -38.853635,-18.75669 C 49.612627,101.11982 24.990904,97.521082 24.990904,97.521082 l -0.303968,5.541318 c 0,0 13.326796,-1.97793 56.347464,16.88214 33.35562,14.62296 39.79662,18.50197 39.79662,18.50197"
       id="path837"
       sodipodi:nodetypes="csccsc" />
    <path
       style="fill:#965b35;fill-opacity:1;stroke:#000000;stroke-width:0;stroke-linecap:butt;stroke-linejoin:miter;stroke-miterlimit:4;stroke-dasharray:none;stroke-opacity:1"
       d="m 120.98616,150.4591 c 0,0 -14.4274,-2.95046 -46.085169,-17.32683 C 42.452567,118.39684 24.307417,119.37175 24.307417,119.37175 l -0.303581,5.55008 c 0,0 45.095961,10.05322 50.887524,13.07622 8.407868,4.38862 47.0279,20.59647 47.0279,20.59647"
       id="path839"
       sodipodi:nodetypes="csccsc" />
    <path
       style="fill:#965b35;fill-opacity:1;stroke:#000000;stroke-width:0;stroke-linecap:butt;stroke-linejoin:miter;stroke-miterlimit:4;stroke-dasharray:none;stroke-opacity:1"
       d="m 107.25426,176.06658 c 0,0 -14.427402,-2.95046 -46.085171,-17.32683 C 28.720665,144.00432 10.575515,144.97923 10.575515,144.97923 l -0.303581,5.55008 c 0,0 45.095961,10.05322 50.887524,13.07622 8.407868,4.38862 47.027902,20.59647 47.027902,20.59647"
       id="path841"
       sodipodi:nodetypes="csccsc" />
    <path
       style="fill:#965b35;fill-opacity:1;stroke:#000000;stroke-width:0;stroke-linecap:butt;stroke-linejoin:miter;stroke-miterlimit:4;stroke-dasharray:none;stroke-opacity:1"
       d="m 134.42215,95.445781 c 0,0 -14.4274,-2.95046 -46.085172,-17.32683 C 55.888554,63.383521 37.743404,64.358431 37.743404,64.358431 l -0.303581,5.55008 c 0,0 45.095961,10.05322 50.887524,13.07622 8.407868,4.38862 47.027903,20.596469 47.027903,20.596469"
       id="path843"
       sodipodi:nodetypes="csccsc" />
  </g>
</svg>
